5261
…
LTC <- read.csv("LTC-USD(1).csv",sep = ",")
LTC$Date <- as.Date(LTC$Date)
LTC <- LTC[,c("Date","Close")]
LTC$Type <- "LTC"

XRP <- read.csv("XRP-USD.csv",sep = ",")
XRP$Date <- as.Date(XRP$Date)
XRP <- XRP[,c("Date","Close")]
XRP$Type <- "XRP"

DATA <- rbind(BTC,Dash,LTC,ETH,XRP)
DATA

## # A tibble: 7,106 x 3
##          Date   Close  Type
##        <date>   <dbl> <chr>
##  1 2018-04-04 6853.84   BTC
##  2 2018-04-03 7456.11   BTC
##  3 2018-04-02 7083.80   BTC
##  4 2018-04-01 6844.23   BTC
##  5 2018-03-31 6973.53   BTC
##  6 2018-03-30 6890.52   BTC
##  7 2018-03-29 7165.70   BTC
##  8 2018-03-28 7954.48   BTC
##  9 2018-03-27 7833.04   BTC
## 10 2018-03-26 8209.40   BTC
## # ... with 7,096 more rows
…
